<?xml version="1.0" encoding="UTF-8"?>
<svg width="32px" height="32px" viewBox="0 0 32 32" version="1.1" xmlns="http://www.w3.org/2000/svg" xmlns:xlink="http://www.w3.org/1999/xlink">
    <title>Safety Reports</title>
    <g id="Safety-Reports" stroke="none" stroke-width="1" fill="none" fill-rule="evenodd">
        <g id="Enterprise-/-Health-/-health-cross-/-20" fill="#ffca2b">
            <path d="M19,28 L13,28 C11.8958875,27.9988975 11.0011025,27.1041125 11,26 L11,21 L6,21 C4.89588748,20.9988975 4.00110246,20.1041125 4,19 L4,13 C4.00110246,11.8958875 4.89588748,11.0011025 6,11 L11,11 L11,6 C11.0011025,4.89588748 11.8958875,4.00110246 13,4 L19,4 C20.1041125,4.00110246 20.9988975,4.89588748 21,6 L21,11 L26,11 C27.1041125,11.0011025 27.9988975,11.8958875 28,13 L28,19 C27.9983479,20.1038844 27.1038844,20.9983479 26,21 L21,21 L21,26 C20.9983479,27.1038844 20.1038844,27.9983479 19,28 Z M6,13 L6,19 L13,19 L13,26 L19,26 L19,19 L26,19 L26,13 L19,13 L19,6 L13,6 L13,13 L6,13 Z" id="Fill"></path>
        </g>
    </g>
</svg>